module gitlab.com/gzavodov/tiny-social-net

go 1.18

require (
	github.com/allegro/bigcache/v3 v3.0.2
	github.com/badoux/checkmail v1.2.1
	github.com/dgrijalva/jwt-go v3.2.0+incompatible
	github.com/gin-gonic/gin v1.8.1
	github.com/go-sql-driver/mysql v1.6.0
	github.com/golang-queue/queue v0.1.3
	github.com/gorilla/sessions v1.2.1
	github.com/jmoiron/sqlx v1.3.5
	github.com/stretchr/testify v1.8.0
	github.com/urfave/negroni v1.0.0
	golang.org/x/crypto v0.0.0-20220427172511-eb4f295cb31f
)

require (
	github.com/carlescere/scheduler v0.0.0-20170109141437-ee74d2f83d82 // indirect
	github.com/davecgh/go-spew v1.1.1 // indirect
	github.com/gin-contrib/sse v0.1.0 // indirect
	github.com/go-playground/locales v0.14.0 // indirect
	github.com/go-playground/universal-translator v0.18.0 // indirect
	github.com/go-playground/validator/v10 v10.10.1 // indirect
	github.com/goccy/go-json v0.9.7 // indirect
	github.com/gorilla/securecookie v1.1.1 // indirect
	github.com/json-iterator/go v1.1.12 // indirect
	github.com/leodido/go-urn v1.2.1 // indirect
	github.com/mattn/go-isatty v0.0.14 // indirect
	github.com/modern-go/concurrent v0.0.0-20180306012644-bacd9c7ef1dd // indirect
	github.com/modern-go/reflect2 v1.0.2 // indirect
	github.com/pelletier/go-toml/v2 v2.0.1 // indirect
	github.com/pmezard/go-difflib v1.0.0 // indirect
	github.com/ugorji/go/codec v1.2.7 // indirect
	golang.org/x/net v0.0.0-20211112202133-69e39bad7dc2 // indirect
	golang.org/x/sys v0.0.0-20220429233432-b5fbb4746d32 // indirect
	golang.org/x/text v0.3.7 // indirect
	google.golang.org/protobuf v1.28.0 // indirect
	gopkg.in/yaml.v2 v2.4.0 // indirect
	gopkg.in/yaml.v3 v3.0.1 // indirect
)
